1,181
2,289
3,243
4,272
5,173
6,68
7,64
8,92
9,259
10,72
11,194
12,234
13,79
14,255
15,102
16,41
17,137
18,51
19,195
20,219
21,279
22,239
23,223
24,223
25,122
26,113
27,105
28,177
29,159
30,197
31,137
32,194
33,144
34,92
35,232
36,206
37,238
38,269
39,142
40,105
41,72
42,176
43,159
44,59
45,183
46,120
47,280
48,211
49,91
50,287
51,90
52,212
53,48
54,130
55,108
56,159
57,87
58,132
59,96
60,266
61,240
62,185
63,275
64,289
65,56
66,106
67,53
68,199
69,122
70,95
71,133
72,298
73,208
74,163
75,145
76,83
77,273
78,130
79,107
80,65
81,223
82,129
83,273
84,264
85,90
86,114
87,230
88,54
89,253
90,137
91,179
92,261
93,241
94,69
95,185
96,215
97,245
98,249
99,194
100,268